{
    "data": [
        {"tableName": "Customers","tableId": "Customers"},
        {"tableName": "Orders","tableId": "Orders"},
        {"tableName": "Address","tableId": "Address"},
        {"tableName": "Category","tableId": "Category"},
        {"tableName": "Products","tableId": "Products"}
      ]
  }

